%YAML 1.1
%TAG !u! tag:unity3d.com,2011:
--- !u!74 &7400000
AnimationClip:
  m_ObjectHideFlags: 0
  m_CorrespondingSourceObject: {fileID: 0}
  m_PrefabInstance: {fileID: 0}
  m_PrefabAsset: {fileID: 0}
  m_Name: Boom
  serializedVersion: 6
  m_Legacy: 0
  m_Compressed: 0
  m_UseHighQualityCurve: 1
  m_RotationCurves: []
  m_CompressedRotationCurves: []
  m_EulerCurves: []
  m_PositionCurves: []
  m_ScaleCurves: []
  m_FloatCurves: []
  m_PPtrCurves:
  - curve:
    - time: 0
      value: {fileID: -4662088724381171988, guid: 7c2e879ed3c7945fd8bc56e6781fe738,
        type: 3}
    - time: 0.18333334
      value: {fileID: 4811795881681653473, guid: 7c2e879ed3c7945fd8bc56e6781fe738,
        type: 3}
    - time: 0.33333334
      value: {fileID: -1177319601330190650, guid: 7c2e879ed3c7945fd8bc56e6781fe738,
        type: 3}
    - time: 0.48333332
      value: {fileID: 215852351365427909, guid: 7c2e879ed3c7945fd8bc56e6781fe738,
        type: 3}
    - time: 0.6333333
      value: {fileID: -2705306913393064450, guid: 7c2e879ed3c7945fd8bc56e6781fe738,
        type: 3}
    - time: 0.75
      value: {fileID: 6382801561645640374, guid: 7c2e879ed3c7945fd8bc56e6781fe738,
        type: 3}
    attribute: m_Sprite
    path: 
    classID: 212
    script: {fileID: 0}
  m_SampleRate: 60
  m_WrapMode: 0
  m_Bounds:
    m_Center: {x: 0, y: 0, z: 0}
    m_Extent: {x: 0, y: 0, z: 0}
  m_ClipBindingConstant:
    genericBindings:
    - serializedVersion: 2
      path: 0
      attribute: 0
      script: {fileID: 0}
      typeID: 212
      customType: 23
      isPPtrCurve: 1
    pptrCurveMapping:
    - {fileID: -4662088724381171988, guid: 7c2e879ed3c7945fd8bc56e6781fe738, type: 3}
    - {fileID: 4811795881681653473, guid: 7c2e879ed3c7945fd8bc56e6781fe738, type: 3}
    - {fileID: -1177319601330190650, guid: 7c2e879ed3c7945fd8bc56e6781fe738, type: 3}
    - {fileID: 215852351365427909, guid: 7c2e879ed3c7945fd8bc56e6781fe738, type: 3}
    - {fileID: -2705306913393064450, guid: 7c2e879ed3c7945fd8bc56e6781fe738, type: 3}
    - {fileID: 6382801561645640374, guid: 7c2e879ed3c7945fd8bc56e6781fe738, type: 3}
  m_AnimationClipSettings:
    serializedVersion: 2
    m_AdditiveReferencePoseClip: {fileID: 0}
    m_AdditiveReferencePoseTime: 0
    m_StartTime: 0
    m_StopTime: 0.76666665
    m_OrientationOffsetY: 0
    m_Level: 0
    m_CycleOffset: 0
    m_HasAdditiveReferencePose: 0
    m_LoopTime: 1
    m_LoopBlend: 0
    m_LoopBlendOrientation: 0
    m_LoopBlendPositionY: 0
    m_LoopBlendPositionXZ: 0
    m_KeepOriginalOrientation: 0
    m_KeepOriginalPositionY: 1
    m_KeepOriginalPositionXZ: 0
    m_HeightFromFeet: 0
    m_Mirror: 0
  m_EditorCurves: []
  m_EulerEditorCurves: []
  m_HasGenericRootTransform: 0
  m_HasMotionFloatCurves: 0
  m_Events:
  - time: 0.75
    functionName: DeleteObject
    data: 
    objectReferenceParameter: {fileID: 0}
    floatParameter: 0
    intParameter: 0
    messageOptions: 0
